tb/verdiLog/novas_sim.log
Invoking simulator...

./simv -do dump.tcl -l verid.log -sml=verdi +UVM_VERDI_TRACE=UVM_AWARE +fsdb+gate=off -ucli2Proc -ucli
debImport "-i" "-simflow" "-dbdir" "./simv.daidir"
*Verdi* Loading libsscore_vcs202206.so

verdiShowWindow -win $_Verdi_1 -switchFS
*Verdi* : Enable RPC Server(16307)

srcTBInvokeSim
Chronologic VCS simulator copyright 1991-2022
Contains Synopsys proprietary information.
Compiler version T-2022.06_Full64; Runtime version T-2022.06_Full64;  May 15 23:50 2024
xterm-256color is Not a valid terminal...
Verdi>fsdbAutoSwitchDumpfile 25 ./wave.fsdb 100
*Verdi* FSDB WARNING: The FSDB file already exists. Overwriting the FSDB file may crash the programs that are using this file.
*Verdi* FSDB: The switch FSDB file size might not match the input size (25MB) because of performance concerns.
*Verdi* FSDB: To have the FSDB file size match the input size (25MB), set the FSDB_ENV_PRECISE_AUTOSWITCH environment, though the dumping performance might decrease.
*Verdi* : Enable automatic switching of the FSDB file.
*Verdi* : (Filename='./wave', Limit Size=25MB, File Amount=100).
*Verdi* : Create FSDB file './wave_000.fsdb'
*Verdi* : Create the file './wave.log' to log the time range of each FSDB file.
*Verdi* : Create virtual FSDB file './wave.vf' to log each FSDB file.
Verdi>fsdbDumpvars +all
*Verdi* : Begin traversing the scopes, layer (0).
*Verdi* : Enable +all dumping.
*Verdi* : End of traversing.
Verdi>run
Time:                    0, wr_data: 0000, rd_data: xxxx, full: 0, empty: 1
Time:                15000, wr_data: 0001, rd_data: xxxx, full: 0, empty: 1
Time:                25000, wr_data: 0002, rd_data: xxxx, full: 0, empty: 1
Time:                35000, wr_data: 0003, rd_data: xxxx, full: 0, empty: 0
Time:                45000, wr_data: 0004, rd_data: xxxx, full: 0, empty: 0
Time:                55000, wr_data: 0005, rd_data: xxxx, full: 0, empty: 0
Time:                65000, wr_data: 0006, rd_data: xxxx, full: 0, empty: 0
Time:                75000, wr_data: 0007, rd_data: xxxx, full: 0, empty: 0
Time:                85000, wr_data: 0008, rd_data: xxxx, full: 1, empty: 0
Time:                95000, wr_data: 0008, rd_data: 0001, full: 1, empty: 0
Time:               105000, wr_data: 0008, rd_data: 0002, full: 1, empty: 0
Time:               115000, wr_data: 0008, rd_data: 0003, full: 0, empty: 0
Time:               125000, wr_data: 0008, rd_data: 0004, full: 0, empty: 0
Time:               135000, wr_data: 0008, rd_data: 0005, full: 0, empty: 0
Time:               145000, wr_data: 0008, rd_data: 0006, full: 0, empty: 0
Time:               155000, wr_data: 0008, rd_data: 0007, full: 0, empty: 1
$finish called from file "/home/yang/Project/paillier/tb/fifo_tb.v", line 67.
$finish at simulation time               265000
Simulation complete, time is 265000 ps.
fifo_tb.v, 67 :         $finish;
           V C S   S i m u l a t i o n   R e p o r t 
Time: 265000 ps
CPU Time:      0.050 seconds;       Data structure size:   0.0Mb
Wed May 15 23:56:38 2024
debExit
